{
	"name": "Placeme.Providers",
	"dockerComposeFile": [
		"docker-compose.yml",
		"base/compose/docker-compose.base.yml",
		"base/compose/docker-compose.workspace-netcore.yml"
	],
	"extensions": [
		"ms-dotnettools.csharp",
		"eamodio.gitlens",
		"editorconfig.editorconfig",
		"formulahendry.dotnet-test-explorer",
		"josefpihrt-vscode.roslynator"
	],
	"initializeCommand": "if [ ! -f .devcontainer/.env ]; then cp .devcontainer/.env.example .devcontainer/.env; fi",
	"postCreateCommand": "",
	"remoteEnv": {
		"LOCAL_WORKSPACE_FOLDER": "${localWorkspaceFolder}"
	},
	"remoteUser": "vscode",
	"service": "workspace",
	"shutdownAction": "stopCompose",
	"workspaceFolder": "/app",
}